Maps in R using ggplot2 and OSM packages
…
Now we combine ONS shapefiles with CCG Outcomes Indicators data ready to be plotted in the map. Details: https://github.com/Pablo-source/Maps-in-R/blob/main/08%20CCG%20Outcomes%20Indicators%20Set%20march%202022.R

We will plot this indicator: 1.17 - Percentage of new cases of cancer for which a valid stage is recorded at the time of diagnosis

# Data wrangling
cancer_new <- read_excel(here("data", "CCG_1.17_I01968_D.xlsx"), sheet = 3, skip =13) %>% 
                         clean_names() %>% 
                         select("reporting_period","breakdown","ons_code","level","level_description","indicator_value")%>%                          filter(level_description !="England")

cancer_new_sel <- cancer_new %>% 
                            select("reporting_period","breakdown","ons_code","level","level_description","indicator_value") %>% 
                            filter(level_description !="England")
cancer_new_sel

# A tibble: 742 x 6
   reporting_period breakdown ons_code  level level_description  indicator_value
              <dbl> <chr>     <chr>     <chr> <chr>                        <dbl>
 1             2019 CCG       E38000006 02P   NHS Barnsley CCG              68  
 2             2019 CCG       E38000007 99E   NHS Basildon and ~            73.5
 3             2019 CCG       E38000008 02Q   NHS Bassetlaw CCG             68.5
 4             2019 CCG       E38000231 92G   NHS Bath and Nort~            78.7
 5             2019 CCG       E38000249 M1J4Y NHS Bedfordshire,~            80.2
 6             2019 CCG       E38000221 15A   NHS Berkshire Wes~            70  
 7             2019 CCG       E38000220 15E   NHS Birmingham an~            75.4
 8             2019 CCG       E38000250 D2P2L NHS Black Country~            76.8
 9             2019 CCG       E38000014 00Q   NHS Blackburn wit~            83.6
10             2019 CCG       E38000015 00R   NHS Blackpool CCG             76.8
# i 732 more rows
…
