NHSE-R - Maps in R using ggplot2 and OSM packages
…
# Main function for data wrangling
cancer_data_analysis <- function() {
  # Load and preprocess cancer data
  cancer_data <- load_and_preprocess_cancer_data()
  
  # Additional processing or analysis can be performed here
  
  # Print the resulting dataframe
  print(cancer_data)
}

# Call the main function for data analysis
cancer_new_sel <- cancer_data_analysis()

# A tibble: 742 × 6
   reporting_period breakdown ons_code  level level_description  indicator_value
              <dbl> <chr>     <chr>     <chr> <chr>                        <dbl>
 1             2019 CCG       E38000006 02P   NHS Barnsley CCG              68  
 2             2019 CCG       E38000007 99E   NHS Basildon and …            73.5
 3             2019 CCG       E38000008 02Q   NHS Bassetlaw CCG             68.5
 4             2019 CCG       E38000231 92G   NHS Bath and Nort…            78.7
 5             2019 CCG       E38000249 M1J4Y NHS Bedfordshire,…            80.2
 6             2019 CCG       E38000221 15A   NHS Berkshire Wes…            70  
 7             2019 CCG       E38000220 15E   NHS Birmingham an…            75.4
 8             2019 CCG       E38000250 D2P2L NHS Black Country…            76.8
 9             2019 CCG       E38000014 00Q   NHS Blackburn wit…            83.6
10             2019 CCG       E38000015 00R   NHS Blackpool CCG             76.8
# ℹ 732 more rows
…
